{
  "log" : {
    "version" : "1.2",
    "creator" : {
      "name" : "BrowserMob Proxy",
      "version" : "2.1.5",
      "comment" : ""
    },
    "pages" : [ {
      "id" : "Page 0",
      "startedDateTime" : "2019-04-13T15:15:50.930Z",
      "title" : "Page 0",
      "pageTimings" : {
        "onLoad" : 1568,
        "comment" : ""
      },
      "comment" : ""
    } ],
    "entries" : [ {
      "pageref" : "Page 0",
      "startedDateTime" : "2019-04-13T15:15:51.872Z",
      "request" : {
        "method" : "GET",
        "url" : "https://reqres.in/api/users?page=2",
        "httpVersion" : "HTTP/1.1",
        "cookies" : [ ],
        "headers" : [ {
          "name" : "User-Agent",
          "value" : "Katalon Studio"
        }, {
          "name" : "Host",
          "value" : "reqres.in"
        }, {
          "name" : "Accept",
          "value" : "text/html, image/gif, image/jpeg, *; q=.2, */*; q=.2"
        }, {
          "name" : "Connection",
          "value" : "keep-alive"
        } ],
        "queryString" : [ {
          "name" : "page",
          "value" : "2"
        } ],
        "headersSize" : 167,
        "bodySize" : 0,
        "comment" : ""
      },
      "response" : {
        "status" : 200,
        "statusText" : "OK",
        "httpVersion" : "HTTP/1.1",
        "cookies" : [ {
          "name" : "__cfduid",
          "value" : "da22b0c9fc40bd5efb206729e7ce62caf1555168551",
          "path" : "/",
          "domain" : ".reqres.in",
          "expires" : "2020-04-12T15:15:51.000Z",
          "httpOnly" : true,
          "secure" : false,
          "comment" : ""
        } ],
        "headers" : [ {
          "name" : "Date",
          "value" : "Sat, 13 Apr 2019 15:15:52 GMT"
        }, {
          "name" : "Content-Type",
          "value" : "application/json; charset=utf-8"
        }, {
          "name" : "Content-Length",
          "value" : "443"
        }, {
          "name" : "Connection",
          "value" : "keep-alive"
        }, {
          "name" : "Set-Cookie",
          "value" : "__cfduid=da22b0c9fc40bd5efb206729e7ce62caf1555168551; expires=Sun, 12-Apr-20 15:15:51 GMT; path=/; domain=.reqres.in; HttpOnly"
        }, {
          "name" : "X-Powered-By",
          "value" : "Express"
        }, {
          "name" : "Access-Control-Allow-Origin",
          "value" : "*"
        }, {
          "name" : "ETag",
          "value" : "W/\"1bb-wM9a6JWbwt3JpLNfwoQwxnqaC3Y\""
        }, {
          "name" : "Expect-CT",
          "value" : "max-age=604800, report-uri=\"https://report-uri.cloudflare.com/cdn-cgi/beacon/expect-ct\""
        }, {
          "name" : "Server",
          "value" : "cloudflare"
        }, {
          "name" : "CF-RAY",
          "value" : "4c6e65d9bc70a900-SIN"
        } ],
        "content" : {
          "size" : 443,
          "mimeType" : "application/json; charset=utf-8",
          "text" : "{\"page\":2,\"per_page\":3,\"total\":12,\"total_pages\":4,\"data\":[{\"id\":4,\"first_name\":\"Eve\",\"last_name\":\"Holt\",\"avatar\":\"https://s3.amazonaws.com/uifaces/faces/twitter/marcoramires/128.jpg\"},{\"id\":5,\"first_name\":\"Charles\",\"last_name\":\"Morris\",\"avatar\":\"https://s3.amazonaws.com/uifaces/faces/twitter/stephenmoon/128.jpg\"},{\"id\":6,\"first_name\":\"Tracey\",\"last_name\":\"Ramos\",\"avatar\":\"https://s3.amazonaws.com/uifaces/faces/twitter/bigmancho/128.jpg\"}]}",
          "comment" : ""
        },
        "redirectURL" : "",
        "headersSize" : 538,
        "bodySize" : 443,
        "comment" : ""
      },
      "cache" : { },
      "timings" : {
        "comment" : "",
        "ssl" : 680,
        "receive" : 110,
        "connect" : 740,
        "dns" : 4,
        "wait" : 464,
        "blocked" : 0,
        "send" : 11
      },
      "serverIPAddress" : "104.27.134.11",
      "comment" : "",
      "_katalonRequestInformation" : {
        "name" : "0",
        "testObjectId" : "Object Repository/REST Web Services API/ListUsers",
        "harId" : "16ed61b8-7f9d-4857-bc85-80c5c8381c06"
      },
      "time" : 1332
    } ],
    "comment" : ""
  }
}